{"hash":"c0a8b5467d8020ad5b2cd7ff40352f3dd0fb561c","data":{"entries":{"totalCount":32,"pageInfo":{"totalPages":4,"currentPage":4},"edges":[{"node":{"id":"tf_grid_24_update","tags":[{"id":"grid","title":"grid","path":"/news/tags/grid/"},{"id":"update","title":"update","path":"/news/tags/update/"}],"excerpt":"We still need more people willing to test – join in!","category":[{"id":"farming","title":"farming"},{"id":"cloud","title":"cloud"},{"id":"foundation","title":"foundation"}],"image":{"type":"image","mimeType":"image/png","src":"/assets/static/tf_grid_24_update.4250cd3.9923c3b6795bc4204640decffece1dee.png","size":{"width":800,"height":400},"sizes":"(max-width: 800px) 100vw, 800px","srcset":["/assets/static/tf_grid_24_update.1b91758.9923c3b6795bc4204640decffece1dee.png 480w","/assets/static/tf_grid_24_update.4250cd3.9923c3b6795bc4204640decffece1dee.png 800w"],"dataUri":"data:image/svg+xml,%3csvg fill='none' viewBox='0 0 800 400' xmlns='http://www.w3.org/2000/svg' xmlns:xlink='http://www.w3.org/1999/xlink'%3e%3cdefs%3e%3cfilter id='__svg-blur-b279f6980a1bb7fd5cdf60478e3e3339'%3e%3cfeGaussianBlur in='SourceGraphic' stdDeviation='40'/%3e%3c/filter%3e%3c/defs%3e%3cimage x='0' y='0' filter='url(%23__svg-blur-b279f6980a1bb7fd5cdf60478e3e3339)' width='800' height='400' xlink:href='data:image/png%3bbase64%2ciVBORw0KGgoAAAANSUhEUgAAAEAAAAAgCAYAAACinX6EAAAACXBIWXMAAA7EAAAOxAGVKw4bAAAJ1klEQVRo3t1ZaVNTWRrmV8yX/jbzZebDVM1SM/MDZqZ6qkdLS6c/tLbdhbYtsmhMCKLIIqA92tDIIjCIyKKIoNCtENYOu%2bxbIAkQhBAgIGtCQlhy733mvbkkZIUwU2OPnqpTdznn3HPe5zzvct4bAG%2bF44TqfO94ZgHrMl139trf4xLgs8VZMGcAWAtgqgd25jzbPhgA3Hff/X6jE7D0fOAA2IXaUtJuT%2b/Rny/MKrCpoGfmvVeDAK877gLAGFG%2bmoQ2uILgPu69Z4Avo8eXzQHA3GTbcc7WRWgXLtyBFfYx//cq4Mvw8VRnVhy77yzUhwGAfXHMOhm3bsHNeQPF6dlfgfh%2brBcgXAFyfWefh/NQMW5f8N2/4c8a3WwA7fTWONH9R6L9ID1vu7BhbzKBCa2tbaiprUVtjQzVNTVoa2tDZ0cHerq7UPT4Mdrb22G1Mo5PsKznIlluT1jOCTRfgO3ds24AsC4C%2b7tBAV71njURACMCI5w/5phIAGDDbILFZIRSo8Xy4lusrRmgVI9hYnIa6wYD5uf12DAZsLiy5piQdVqYcd3suqssg3WjwUkIxk1ICPPvcsa92tZnXacYzeTJKJ8AHISUFzrZ7zYsFnx2qxh/CLqD88mlWNYp8bfofPzqfApeVFUiPrsAkpRC/DooFUejcjG3sOgYHZP7Ej//MgkFP9Q4vvuiuR9/jswHZ1kCDKMEiNVDnQSiUjC2Tu55mQzzYgOw1kXMnRfstSYRWzMpDgD9ZwCzJug%2buyGEuU6McExs3QQ314QddREwmYWbyXdw7qoU2z9eRFdBIKYqLuCEJBZl6edxJOwazkdF4/ila4i5/wiJ/8rH5wm5tHAF2DUNKmQyxGUV4ag0GXhbBYzn4a/iZPwyOAvcaCGgzAY7VgRO3yIwgRHUkbPMwjpdjPXhVBgV6TAOZ8AwlIoNdSa4lW7qt44dZT%2bJwPilCgIAvIU3ywXdN9USmioXQ7QHgAXcYBK25V8D/ZfwmUiM2kIJFKUhOHn1Nr5NCMKR8Ns4Hh6P8LhISOKjcTJEhJTUGCzUReBPX8cDvbE09jYweAvHxPGozJOQsFI0F0vwm9NSfBJ8FZbWSKAnBmz/XXDKB%2bAW28GMqmDVTwHzxdB1ZkLd34RZTTe0qna69kH5uhzmkVTSqyGwq7ROxnoIAHiq8DE%2bH%2bzs6AUWeBgg0j3LW3AjmdhpvQIMSPHt3XB8Gh6LkWcX8Isz8YiKE%2bHjK7fw0Zkk5HwXBnFiLP4eJEZ4/HWEREkREh0FdIaRcJfxuUSKwAgpmOZL2G4WIS3pCn526i4%2bOp8NxbOL1CcCjOoRuFU1OPMc7egOAUBnkOkHmOx6jKmJcczPaLC0oIVuagy9rbUwjOSAm3lK4hgO4QV8dXIKdGyPJh04Fe1G53WwbWJw7WKwrSKERUfij%2bduIO6bSCxXhyA%2bQYzSjIuIjgklocRIjLuI3wVG4ysS1lgXCnRLgfYwBEoj8NsvriPrThASogKhexWGsQoRvpKIYZFTv7YwsH3fkEAN5IyMZA82YdU%2bBnSPMNVdiAm1AvppFRb1E9C9UULRWUcA0Pq0uaRiQ7sisP4ygPMaBnu4GdMMOEUq2NdE274YGJojgOZg0pwwbMqDsdpwGZOVtHstIuzQzmorg2BpEhPd44ChaKq3sNAcTbROxs7gbbypk0JbK8ZsnQjrTRLM1oZAW3UR2/1kxMjWcNZthyHktpZhnf0BmCmClgAYHRnAnFaF5YVJTKgG0NtcBaMylwDIA7PcsceA/cJ8ugb4G8wIbopAWB%2bDdb6U7EQ9buZfQ8WreDTUJiLqfhjCSZ//khSEtOIIyGtv4ZN7wfgyS4SO/kekXm0YHSvB0dRLmJ3%2bHgtUT6WE4shDKW7khCOtJBbH00IRmh2OsbFmmm0C7DaxbjfvwG0tgpkn%2bzRbjKmufGgn1DCs6LC2rCMWTELZI8faMKmA9iGd1fodDDgovxFwkAu0R2qOAIhdhZU/F7BtiKZFl7VkQvY6BxFF0QjNi0T/YAGCH17DnfLbSChLwMvGdJzIuExurQ7lzRn4fVEkXrbet43vHcjHORpjITCyG%2b7h9AMpZA1pBHIj2Zteov406b5eiB9W2og1pBq6QlKBImhUCkxrhkgNRvFGPYjeFhkMPAOm88mc6fcAcAnvrR7yHYoBvHvktt/AamqzCRD7NA7lTemoac9CZMF1iKjm1CQjKDcC9ysIgPJEm%2bCn6Xls%2bDH%2b%2bTwRgRlXEF8SZxuvGn2KC4/I4i9WIqf%2bO5yi%2b0oCCcYaAqCH1rskVFtAxJCnpkOZNgeTHblQD/ViZnIYugkFqcIoFB215BYJvLc1wga7q8D2lODpLF1CuM8f6Q9kgLeDEflZq5k%2bwnYi6sl1lMnTUN2WBUmeFJLSmziWFoImclNV7feRUBoP1XARTmaGYXKkEIFPonD6oQRnCq%2bRnsowOk4A5JNnWGpESuUdFMiSaAIS3FxP9kYunEDJNfOgO4pFDctYDua707DQl4WF3izoezKw1HcP7LwMrFEhBEruABCQ2NJQpEQGcnOY1r95SADsuQAayOzwJ8Mp1HeV4B9pl/Bp%2bmX80JSHs%2bkijGsoqIEOVZ1P8HFqMI6lhKGyoxR9Qy9wMj0c1V3VOHFPhEG1DNqZfnyRfYMov4LM%2bic4khmCyPyreDNex28ZWGaDpjTbQLcLw8xSNGmeAVYbKSYoB/TPiUE0p2l4z2D6m6fwVwXcP8Y5hcODE6Po16hs7QPqYRjNZtv75dU11Pe1QzMrZJPmFpegJt/NF4V6BEurS9ja2kC/atj2blo/C1l3C2p622EwGlxxd1JFZkZv2wf%2bHWvdomoRjLOjz57h43bV1hboORbPHsII7pMs8Th9OXVnnbNGvNY4PVsZz/icA%2bdlSlb4qtNJ1GWE2%2b46r4dzP9iZWwS9Z00em%2bk/Azw8w%2b5Zn9Dnq/3euY3ZbcNuToB/5hdv72cfw8tpb2dYT0H8ScA4mOk1obst5DB5I8gYXUA4PAD/QXE/p/NCM8QEvrrf26u/x1mfTPWWseaP9845jncBgF0Aq9VqE9LfYgfhMGrp8PW8q9uZ8Z3j/K9U4JDFLohWq8WNG1Gob6hHa1srXpS/QGnpM8gb5aiurkZVVRUamxptWSSFQuEYuy8DfKTrwLvNdRmhvrBvGPxOAdBoNDh7NhANBMCIcgQlJU9R9rwMFd9X4FXlK8jlcsiqZXj56qWt/UAAXH7VLXj%2bquMz2bzhO%2bDnzTtVgcPoM%2bdnpkpITXUIRs75v4XN/Rl9s%2bVdAeDLCLp7D2fP4C0R6v3D7F6Ya6pxRHc%2b0/s/JQP8/Yfgd1rbxddv7Ia32z4MI/fTMuB/hOz%2bhtDP8m%2bE5zt%2bFwOX4AAAAABJRU5ErkJggg==' /%3e%3c/svg%3e"},"path":"/news/post/tf_grid_24_update/","humanTime":"10 Feb 2020","datetime":"2020-02-10T00:00:00.000Z"}},{"node":{"id":"threefold_hpe","tags":[{"id":"partner","title":"partner","path":"/news/tags/partner/"}],"excerpt":"Dubai, UAE, Today at GITEX Technology Week, ThreeFold signed a Memorandum of Understanding (MOU) with Hewlett Packard Enterprise (HPE)","category":[{"id":"farming","title":"farming"},{"id":"cloud","title":"cloud"},{"id":"foundation","title":"foundation"}],"image":{"type":"image","mimeType":"image/png","src":"/assets/static/threefold_hpe.4250cd3.a0e5703228248bd938f7af73f8737fc6.png","size":{"width":800,"height":400},"sizes":"(max-width: 800px) 100vw, 800px","srcset":["/assets/static/threefold_hpe.1b91758.a0e5703228248bd938f7af73f8737fc6.png 480w","/assets/static/threefold_hpe.4250cd3.a0e5703228248bd938f7af73f8737fc6.png 800w"],"dataUri":"data:image/svg+xml,%3csvg fill='none' viewBox='0 0 800 400' xmlns='http://www.w3.org/2000/svg' xmlns:xlink='http://www.w3.org/1999/xlink'%3e%3cdefs%3e%3cfilter id='__svg-blur-81e71473476793198d51fe4f9be45d08'%3e%3cfeGaussianBlur in='SourceGraphic' stdDeviation='40'/%3e%3c/filter%3e%3c/defs%3e%3cimage x='0' y='0' filter='url(%23__svg-blur-81e71473476793198d51fe4f9be45d08)' width='800' height='400' xlink:href='data:image/png%3bbase64%2ciVBORw0KGgoAAAANSUhEUgAAAEAAAAAgCAYAAACinX6EAAAACXBIWXMAAA7EAAAOxAGVKw4bAAAZU0lEQVRo3k2ZZ1BVWbeu%2bXlu1T3f17lbsratttpqd9vmgGJAEUWRLDlnJGfJOQsoIBIElJxE2kAQREVEMQfMAclq9z11Tt26Vc8Ze2ud7/54a84119pzrfGOMd4xZm2V8MOlxBSfJOZYDZHFNfgfOYnH4Sqcc05gl1WGY04ly83cUVuzg1/1zbE/GCoIY4e1O6YeQTj6R%2bDgF4aVbwju4bGYugey5YAbC3da8uNmI4IS0pmcHOXV66e8HX3N2MQ7wRjvxseYnpnh0tXrrDK0YYmeOboHXNGz82KTmbMSho6%2bLN9ry3JjR1but2etrK2S%2bS%2b7rFmkb4Xmlv3YxuZzovsuGY39JNRcJLy6k8CyDg4WtRBadpr09l7imzqJqTtLzKkzxFaf5tCJFqLKGogqqkIlpqCcpOM1JJfXk1TRSGRJA35HTuEmJNhll%2bOYW8lv5u58u3onv%2bwww9wzEDOBpU8IdoGRbLX24LfdVuwXwzdYuKBr5cYaU0fUtxqjpbOPoKRMIeCdEPBMScA7BQHj7z4TME3/wJCSgJ%2b3muIemYBfbDJR6dkk5OSTkl/IAn1L/BMz8YhKRN/JD4eQWJbK8/P0LNHeYoJNTB4lXXdJbrhMVE0vwdXd%2bJb%2bifvRFiGijZT2Pg41dhFVe47Ikx1EVp0mUgiIKGsktLAalZTiKnIrm8g72UZuzWmSK1sJOVaPd8EpZRQ451bzu4U7X63UY6OZE%2bl5RwhPyiC3qISW0204K7zuGURlTQ3OIdHYSDTsdvHju42GaAiCk7OYkAh4/mKEV29e8HbsLe/GRgXvPhFwbYiVYtBc3f1EpuXgH59KXE4eNY0NHK%2bu5g8jO0pP1ZJfWo6FbxgBElErJQrmbLeQCDDGPDKXvHN3iG24QuipS/hV9uBWcha7gmbcS1qJaesjrLGbECEgSAgIONFGYHkLIaWNBBeeRCWrtJbCmnaK689S3HiO7FphqawZnyO1uOZW4Xq4muUWHny9cgebLJzxjIzHMyJOSUBReQUmXpIGYnhpVRWHMnIIiE/BKyqBH7eZMGvdboKEgMnJt4y%2be8nk1DtmPkwzKiSMCglT01NCwHWW77HmRyHAWPbaIOmjIM07Jhnn0Bh2OXgQmpzOQSHGJy5FuZ%2b5bwSa2835Xn5jGJpNavswYTX9HKy8iFvZBeyKzmCW28CBomb8my7iU9eJT805fKs78K5ow6O0Gd/jjfgfFQJyKhrE%2bD853nSe4y2d5DWcJ/bEafyKGvDIPyWoEQI8mbXWgPl6Zvy8y5Jf99miI6G%2bZI8VvxgcYLGkwDLx4npLV9ZLGqwTouZuN%2bWb1foEpWQzJsZXnCglLimBusZ6CX%2bJAEmDiekJLg8O8asQoL55P5pikOrmfTI34ucdxtg72ZAe5UFUiAcrjayZtdkYTUkV7W1mnwjYZMSuoAxim4fE%2bF7cSruwK%2b7gQEErhlk1GBY04FzXhf3J8zhXn8P1RAdOpa3YFzfhWtyAp%2bidymEJ/xLxfKkYf7y1iwIRjCRhKrhEouBoA15HGlhp4cWs9buVH6cmH6cq%2bG7jHmZJiKvq7EV10z5myfjdBkPBHsFuNHSN%2bGLVDiKyC6itr%2bG3DZtZtnEL89ZupriqkqmZCd6JNly6PsRSIXCW7K2h2Fv20pQxNNiV7AgHcsMcKDjkRnRMEPN3WjBrkzFquiZoCAE/CAEGwWnENA3gW96F2/Hz2Ba2Y5rbhG5yNdslCqxrOjGvOot15Z/YlLVzoKQFM7HL9mgdTvmiAYermilRer9LCOihsKWbjNrzRJS3E3CsDS8RkxWW3kKAgRi/j%2b/FQAV%2bEONnKYwVYn7QMVSSoSBBCUX%2bixFfrtEnWPI6Piacn1broLF2O9/8th4zFw9JgTeMT47RN3idJbsPCJGGqAt%2bWL8Ha2d70kNsifK1JtjFAk8bI8pywnALCuDLtXvlO4SArRIBG40wFAISWy8TWHEOt2NnMD/cwq7UWlbFV7FBCLCquYBRxRlMy86wv%2bQ0%2byQt9uQ3YJpfh5UIvEpOVQvHmi5IBHRT0nqRIkFBYw8JVeeljJzFp6iDlZY%2b8mEGzN5qwnozRylXLqw2cWCFCNTmA86sk7W1IpCKtT%2bMbFknVWDuNmMlAaGJ6fQdSyTW0QSLfXvQ3bKFsMQUyf8JKYejXBocFAKslERutnLBJTSSyEAXYr3NCbA1IdzGGB/zvYT42BObGMUWKZPb7L0kFcz4dv0%2bDINSSG7pw18c5ljQhFF6LfqJp9icWIVeXj2Wp86xo/Q0O0ra2FHYyjYRx0059ejn1GCUKQRkSUkobOykuFm833xRIqCXo819ZNT0EF3RzcHCTpab%2b/Ldul0s2GGOnX8ozsHhGLkeZKutBwek/hs6%2b6Bn68luZ192yMftFPwkIviVaEBAdAKXi%2bM4E%2bXI1VR3SsNduDl8XSqDlEOJgivXFRFgzRcrdrBIyuw6IXL9PnOCHC0odj/A%2bQhXYm2EvAOW6Nu5fdIYcyepAKZCwF4MApJIaOri4PEmHPNOYZNVhW1mFSZJx9iTXobRiXZ0j7WyWoxfmtfE0pwmFmXUsT6jBr3UE6ikV7SSV9/F4foesusukl3fS27jJTJrLkk1uIRrQR/LzA8qNUB9o2jABsl5CXG1jTKuk5Bduwf19aIFovhqogEKaEhuKqJllszX7rXk5CEPWiNcKPO1JC8ujP6h68rSOCVVQREBi6TB2ioErja256s/tjFLmq5gd2fKXC1pDvPA1dkZ7Q0G8t69fP/5nRoimt/K3DAkhbQzlwgWO3wKarBJr0Q3soJffAtZEVaMruT8sqPNzM9rZnZ2I7MzGtFMrWdpag1rEipQiS9tI%2b1Ul4R8N9Hl3USV9hBXcYmYistSCa5ikXWFn439lASobRAChHUlEZJ/auv3y9wEtU0myrnivqZ82JxtpmiJXnyzfAs6ZvZUxQdRI/lcHuXDcgMz5kl6HIxP487921weusainWas3GfFkh1SBZZvRu2PrcREBFHua0NN3EHMnN35cslGNNbtRF0EVkG4hs5%2bvlmzB8voHGqHHpPecVXCX/QqtBFtr2bUXar42e84Sw%2bL0SKKc7IE6U3MTm5EK6GeBUk1LIgtQyWs6DRRFV34FXdhnS2CkXoBy4xebLKvYJJ1kxUJN9Hc64eapIDaOoWnRfE3mEoO2ggJVny/3lK8YSNEHBARO4DGNvNPz67V51shYI2Ur7K0CFLt9xEZFcpPW4z4fpUe/0sMisrKY%2bjWDRbomfDlMh2%2b/20TavKbrxavJyE1nicDLQz1NKBrbMnXSzeivno7qqu2y/77JcpMRTcM0fePk26vH7PiPmYHd6Ll28Nsz260nVr50buan9IamJPWyJxUMT6pCe04ISCmnh/jTjE7qhwVn/x2fIu6RRC6WBR1nrlBnSwI6WPRIQnNpDvMib%2bHtmGAknlVHXO0dW1ZuMtFOkOp2zqWrBV9%2bH61iRBgjvomC2UKqIqB6mt38t3KbSwVr55rPcFgxwk5Q/jzxa%2bbJZx3icGb8JfG5trNQeZLRPygNF4X9RXb%2beeidYQnJvD3zCuePh5m/V5zvpbn1cV41RVb5VwikbfJClVdCxZKeq4KLRKvtzDH9ypzA2/yY8A95rhfZ7ZHG3PihIAEiQIF4iU6DjWhFd4sECKCalFxye3A5nA3y2K7UPfrRsu7Dy3/AbSjbvBL5j1%2bz3mA9r4QMdBSarStqLsdsYW57PUJ5FB2MWWNbZLDDqiuNUF1g3yYeF5V8lhd8vhbCeUVu824d%2bcqk6OP2OfsyVe/b0F7/S6%2bWrYZU%2bn8egb6WSCC%2bcMy8bDc01yhxxdCgGdIhBAwytD1fhZvNuA7uadIDdXfdVFdvUeiQCJtvZC%2byxd182y0HDvRCH%2bMVvxDtFOeoxH9FO2ga8wRY2dHifGRrWiHdojR59EKuIBmoMz9mlCxyTiDflqXPHBRDL%2bEtv9VmQ8xN0mYz73PlryHzNkfKQaaC8z4bpURgWmxDN6%2bIHV8lIcj98iQtlhHusAFouLfiwdVl2%2bVcBUC5GNXG5qLF%2b/w5vl9dM1t%2bcdSHeX6vy9az7yt%2bzheW8t8ia5/zP2Dbxau5WsJ/3%2bfvxoDaydmxl9w7nwbWqu2MktSQ1WiR/U3BQGKdDRWpoL6dne0jVJY5HUag7IRTE88xKLmOUbVz1macAUN79PMDjiHtu85tHzEwQcVdnahGaAgoBmV5Ao5Jlb1stG/ELW9h9DYF4O6cQyzzUVdq3s5ffUpa63DJeSNWaJvR/3pPzl/sY2aM8dFxHoZeTrMrTu3efFsmOOnqtCQ7k9DPKWxRo9vxNB1Rgd48/IR//UfH%2bWgFI5DcCx2AdG4RyQSnnmEkpp6vMLjcZd1t8AY3EPi2GzsQFRaFs8e9FFccpjvftVBXfZUkzRQkvCHHqprRIw3GIk427LMOAK7xEIu3RvhzsgLRl6PMvLqDcfbu1nlmomaZSHa3mfR8uqSCO8RnRAC/IQA3xZUSpo7ST/Vy282yaiKkn%2b/er/krgXzdgZQWNnMwK276NhH8M8VZmww8%2bDNq1u8enaF4eFOno9clet7vJ%2bSrm7sGVOTb8g7VsLqXaZKj337qy5bxetjb0f4v//1NxbeweyWM75XZDK%2b0akkHC0nLC0f/5g00YcoOfRkERifiYNfFJGpWdy%2beZHU7FT%2buXANX/68nq8EqrKvhmiMxlpDZcXR0LFn/u4AORbn0nHjDtcevOD603GuPB6l/9FrzEMTxRH6aOwMQdO2FjUXSRWPTjR9hABviYCCOumfcy8w36tB%2bnc35u0KZK55Ib94nGRT8lksywZYbBrNtyvlILTNksGBC4w96WPkVjtvn13m2eNL5BYeoqunkYnxp9LnV2Dl5c/Xv%2bjwvxesw9DBhanXd%2bjrbuLnLbv5t/nr%2bMdiHWUtV5PDzVfLt/Nvc1aw3dCE6oxI/N2c0JKK8MOS9ZSW5eDm581sEUc3F1ecXVykuuzkH0t0REy38cVyPb5caS7RacEqObIHFVVinyfH%2bu7X5HS9JPbMU4mARL7/favsJ5GzxpwVfvXMlQhQd29H00MI8M1pEGPL2ZTwJz9aHUE38TzbswYwKRgiom6E6Pqn/GKayA%2brzaUOmxGVmk15RRHDl%2bp5PdLNrcE6Co5HSGrk8fZxF63luTTmJ7LF0IyfVmzG1deT53e7qK/OxVi6uYykaDzCY5i//YAQasLmfSbo7t5PTrAbz44GM16dzJGoQIwOOHC%2bvYrTRSn0FCUy3XuKBy1HcXR3xdrDByfpSJ2CInENT5fTqZxWZb/FjvGsiDpHQsso6a1vcCh9grZliTRWtqJfcuBa48YijzrmxfagKVVD3aEOlQ0RLSyJOMvC6C4pGX3MS7zK8tQhVqffQi/7PnukCszdEy3pYSkNiLnUdgNKjhUzMtBK77lShi8e5%2b6FfEZut3G5q4VLKZ48O%2bzH3eo0HvTV8fTGn7y73cXzM8W8PneM/zd0io5TR9nr5EP%2bkXxe3uxkbLiNpz0VPGgr5EnPaV49usvE2Jgco8eYfPKQ8b4G7jeX8GKgg7HHA9ztb%2bf5cC//OfGC/3w/xYCEvnFYJlpOBSyMv4VJyWusS16xKnFY8r8Wdf0YqVBOgjBUTerRipZeIayVOf5CwI64NvF6JysTu/k1Udre5Cv8njrIyvRhOTTcRydbauruMNSl7Hy9fC/bzJ151N/IzfNltDbmc7Iimb6aFEYHGnlzu5ObJ5K4VZnF66Eu3s9MMvPhI%2b9ePuftuQqeNObwsreR4RuDPHn5mo9//x8mP/zN1JuHfHzSw4dnvcy8fcDk1DSTExNMTk4zMTXF%2bPg4YzJOvP/AxMwMD5%2bM8PzFi0/PvHvHXx/%2b4tWrt/hX9rE%2b/x7utW/xOPWaDek3ULetRMuuCHVDceImb9S2pYv3pSKEtjIvshGVbXGtbEi6wJqUbtal9bEp8yq6OdfZfHiYnUfvo5d/hx/1/aW5UYijIdXHs5m50cij7kpunC3kZFUSFRUZ9HaUMHOnjfePzjP16i5j0%2b/lvD/DmMIImU%2b8fcm7e/2Mv7rPzMePzExPi3C%2bE90QjL1l%2btkNpkeEAAWeXGbm2QAzr27z/sVNJt8%2bZWzmvew5o9x38q%2b/Gf/4F%2bNTM1Iqx%2bT3QvTUByVhtQNv8Gt8hXP9K5YnX0fdrkIiowhNx2OoW%2bSiuiMONdNyNDylGQpqQGVheBPzYs7yU8IFFqdeZEXmZXQODwqTN9A7dp8dR27x404P/rlUDyM7dyaHGhjvL%2bPR2SP01iVzujGV2o4yLnQcZ/r6KaZvt4gR3cy8HGbm9V3ev7nP%2b7ePeT86wodRmb%2b%2bLev3BIr1B4KHsnaH96%2bGBTf/NcpvP0jzpLiveF45yh4zo8%2bYfveS6fFRZibGxfBJOVoLwVMfmZz%2bSyLuL7ofTGJU%2bULqfSfarsfQcjuCprPAqQQNWyn35gVoOFegeVA6QY2D9WgqOiQRD63YbmZLGsxLucp8SYPFubdZmDGE2lZntFYb0NFYzn88OsvETTFyuIk312q53JZNd0suD3vKmB6qY3LwFFN32pl5JCSM9DHzVOHNazIOMK3wrBLi3aey9mxQieknV5mWajL9WJ4fufQZ8tzIFWYe9zP9sJfpB91M3xc86GHm4UVmpEeYfnSFqceDTD4eYkIw/vA6Y4KPTwZpPdfDQs9qND2Pou2Rh6ZrvhCQh4bDUUmLQhHAAimFchjS8K1FI7QdDRFCzShpEA71oRl9Rci4hlbSLemfr/HNBns26pvytCWH0TPZvGmXHBe8aklltC2VyY5sJs8dZlzEcLRDcT%2bTie6jTFwsYqJPgWLBMSYufUZ/yb/minW5P36xkPGeQiZ6Bcr5UcERxrsFnQWCPEG%2b8h3KUXF9XoHDn6B4/9lP48S5PB615rHWN58f3PLQcskQ4zPF%2bExJiSzUbXJQs5W5bQYqv%2b334A85UKy09GeFZQArDwSxxiaU1bZhbHSKljFc2l9j1u0w5X51LG8aE3jdkMCr%2bnhe1MTwpimRsdYUJs5kMHUuR4jIZlSuFfPpngIpX0eYvnSUmUuFgqJP6FeMstanQCHvZU2J/mLeXy75hP5jgk9rHy4pUPRp7Ps8Cokf5JkPQt5HBYTM9woiO48wdj6fuw2Z7LZy5OcDAcx1ku7WPlaQKEYLrJNQsxPYxKOiZ7AXg73Ggv3sNpJR6vIuI1P2mFpi5eCMgXRys1YZsGqHMber48TgJF40JPKkJo6ndQk8r0/gmeBFUyovWtJ53pLBo7pERhpTeH46i6eCJ60ZSoy0ZgoyeKx4pjmNR/KbB01p3G9M465oiQJ3ZH6nMZ1b9akMi8bcrE3mRk0yQ6eSuH4yicGTyVyTcaA6kSuV8Vwuj6O/NIbuY9EMVibyTowflUi415SFg6sLy/X386uNDwvco9FyjhYSosX70WjYx4geHEJF39adXfbe7HMNwNgzBH1HP3Y6B2Lsewir4ER2uIby1W9yrN20ixuVMbxrTeZWRRSJ7mbEu5oR5/YJ8e4WJHlbkulnTba/AjZkB/wLOYHWApkHyTzoX2PO/1zL/WD5XZAV2fJsVoA1mf5WZCgQ8HmUfdP9rEg7eOATfAU%2bliR7mBFqbUi%2bvOfNn4d5cyaH23UZuAWFs9nMnhVCwmJrTxZ7HuIn5whmO4Sz0CmKhY4RqOiaOQkBPhi5BbHTzptdTgEYuoVg5hvJHrdQdsr1qj2W7DG3ZqjikDICbgsBWV6mHPY1J1eQ52dBQeABjoXbUh3vTF2iG3XJ7tQLGlLcqE91oyFV5mnuNAqaBC3pggxP2rK8ac/x5kyuj4yfcObz2J79CWeU8FWiPctHiQ4Fsr05ne5Ji7zjhLy7Pt6F1x25vJKoG5JIcfANZrvYttXYiuV6hiyxcme5VxTLXML4wy2CP2RU2WzmqPx/b6uVG/oSCfr2vhg4HWSfWyDb7Q4q//PzOOhNRIg3Q2WRPK2N5XZ5GM0JDnRne9Ip6MrxoifPh76jflw/HsLNsjBunYhQ4saJcK6Xhwp54QzJ9U25viW4WRHGzUp5piqK24JblZFK3K6UaxmHBTdOCCoUz4bLGKGcD8m7h2T/G2WyZ2kIV4sDuXLUnz%2bTXWkXIl60ZUoapjFYlYhfxCH0nf3YYu3GdhMrVmzbzVJLF1Z5R7HWK5K14mCVrRaOGDqK5%2b09BV5ss/HAwEXSQFJB38kfAyFFV3TCcO8e%2bqVXfygfeKMkmNNJjvTnetN7%2bDOEgMtH/LgpBNwXA2ty/IiNdSctwZ3UeA/SEr3ISvYkPt6dylw/7lWJsWLgXTH%2bjgKVCny%2bVhAge9xQEviJyJuCYQUUZAgJNxVElIYqCejLP0h7ohN/prjytDmVp43Jog3xhCem4BmXwl45heq5ik0iimv1jUTsXdjqH8UWLyFgj50bex29lCRYegVIKvizzz2A/Z7BGEhamHsFY2ljg7OtBf1HArkvnhg6FiQvdKA3x4PeXC8uKiBRoCDiqnjj9vFgkmNcSIx2pTrdm/I0L05keFOXc1AIcSMp3lWiKIRBIXKoNJhBwfX/D4Py%2b2slnyGEDgoGxOMDirl4/ZryfhADcr9foq5T3t0UY8eZJBce1SbwWAS6R0TRJSyGgNQcvBMz2OMTzn7/SEzcfFgj6bBatGGLRyD/DRi1UpB5Iw7dAAAAAElFTkSuQmCC' /%3e%3c/svg%3e"},"path":"/news/post/threefold_hpe/","humanTime":"18 Oct 2018","datetime":"2018-10-18T00:00:00.000Z"}}]},"topics":{"edges":[{"node":{"title":"partners"}},{"node":{"title":"farming"}},{"node":{"title":"token"}},{"node":{"title":"tftech"}},{"node":{"title":"meet"}},{"node":{"title":"evdc"}},{"node":{"title":"demo"}},{"node":{"title":"events"}},{"node":{"title":"collaboration"}},{"node":{"title":"blockchain"}},{"node":{"title":"marketplace"}},{"node":{"title":"tfgrid"}},{"node":{"title":"3bot"}},{"node":{"title":"future"}},{"node":{"title":"internet"}},{"node":{"title":"ama"}},{"node":{"title":"community"}},{"node":{"title":"twin"}},{"node":{"title":"update"}},{"node":{"title":"event"}},{"node":{"title":"news"}},{"node":{"title":"project"}},{"node":{"title":"partner"}},{"node":{"title":"app"}},{"node":{"title":"grid"}},{"node":{"title":"tech"}}]}},"context":{}}